F
F
F
F
F
F
D-
D-
F
F
F
D-
F
F
F
F
F
F
F
F
D-
F
F
F
F
F
F
D-
F
F
F
F
F
D-
F
F
F
F
F
F
F
F
F
F
F
F
F
F
F
F
F
F
F
F
F
F
D-
F
D-
F
F
F
F
F
F
F
F
F
F
F
F
D-
F
F
F
F
D-
F
D-
F
F
F
F
F
F
F
F
D-
F
F
F
F
F
F
F
F
F
F
F
F
F
D-
F
D-
F
F
F
F
F
F
F
F
F
F
F
F
F
F
F
D-
F
F
F
F
F
F
F
F
D-
F
F
F
F
D-
F
F
D+
D-
F
F
F
F
F
F
F
F
F
F
D-
F
F
F
F
F
F
F
F
F
F
F
F
F
F
F
F
F
F
F
F
F
F
D-
F
F
F
F
F
F
F
F
F
F
F
F
F
F
F
F
F
F
D-
F
F
F
F
D-
F
F
F
F
F
F
F
F
F
F
F
F
F
F
F
F
F
F
F
F
F
F
F
F
F
F
F
F
F
F
F
F
F
D-
F
F
F
F
F
F
F
F
F
F
F
F
F
D-
F
F
F
F
F
D+
F
F
F
F
F
D-
F
F
F
F
F
D+
F
F
F
